%YAML 1.1
%TAG !u! tag:unity3d.com,2011:
--- !u!114 &11400000
MonoBehaviour:
  m_ObjectHideFlags: 0
  m_CorrespondingSourceObject: {fileID: 0}
  m_PrefabInstance: {fileID: 0}
  m_PrefabAsset: {fileID: 0}
  m_GameObject: {fileID: 0}
  m_Enabled: 1
  m_EditorHideFlags: 0
  m_Script: {fileID: 11500000, guid: afade24e1b8314a47835b0abbcd463ac, type: 3}
  m_Name: "Ca\xF1on"
  m_EditorClassIdentifier: 
  proySpd: 2
  cadencia: 4
  proysize: 3
  angDispersion: 6
  nProy: 1
  sprite: {fileID: 21300000, guid: dafd75c1342f0db4f9e5eb4ffe4b17db, type: 3}
  color: {r: 0.93666863, g: 1, b: 0, a: 1}
